Number of clients: 9
P1 with arriving time 1 and serving time 4
P2 with arriving time 2 and serving time 3
P3 with arriving time 3 and serving time 5
P4 with arriving time 4 and serving time 3
P5 with arriving time 5 and serving time 5
P6 with arriving time 7 and serving time 5
P7 with arriving time 8 and serving time 4
P8 with arriving time 9 and serving time 3
P9 with arriving time 10 and serving time 3

 TIME: 1
P1 added to Q23
Q23: P1(4) 
Q24: 
Q25: 

 TIME: 2
P2 added to Q24
Q23: P1(4) 
Q24: P2(3) 
Q25: 

 TIME: 3
P3 added to Q25
Q23: P1(3) 
Q24: P2(2) 
Q25: P3(5) 

 TIME: 4
P4 added to Q23
Q23: P1(1) P4(3) 
Q24: P2(1) 
Q25: P3(4) 

 TIME: 5
P5 added to Q24
Q23: P4(3) 
Q24: P5(5) 
Q25: P3(3) 

 TIME: 6
Q23: P4(2) 
Q24: P5(4) 
Q25: P3(2) 

 TIME: 7
P6 added to Q23
Q23: P4(1) P6(5) 
Q24: P5(3) 
Q25: P3(1) 

 TIME: 8
P7 added to Q25
Q23: P6(5) 
Q24: P5(2) 
Q25: P7(4) 

 TIME: 9
P8 added to Q24
Q23: P6(4) 
Q24: P5(1) P8(3) 
Q25: P7(3) 

 TIME: 10
P9 added to Q23
Q23: P6(3) P9(3) 
Q24: P8(3) 
Q25: P7(2) 

 TIME: 11
Q23: P6(2) P9(3) 
Q24: P8(2) 
Q25: P7(1) 

 TIME: 12
Q23: P6(1) P9(3) 
Q24: P8(1) 
Q25: 

 TIME: 13
Q23: P9(3) 
Q24: 
Q25: 

 TIME: 14
Q23: P9(2) 
Q24: 
Q25: 

 TIME: 15
Q23: P9(1) 
Q24: 
Q25: 

 TIME: 16
Q23: 
Q24: 
Q25: 

 TIME: 17

Simulation ended!